<svg xmlns="http://www.w3.org/2000/svg" xmlns:xlink="http://www.w3.org/1999/xlink" width="0" height="0"
     style="position:absolute">

    <symbol id="Cart" viewBox="0 0 50 50">
        <defs>
            <style>
                .cls-1,.cls-2{fill:none}.cls-1{stroke:#000;stroke-linecap:round;stroke-miterlimit:10;stroke-width:2px}
            </style>
        </defs>
        <title>Cart</title>
        <g id="Layer_2" data-name="Layer 2">
            <g id="Layer_1-2" data-name="Layer 1">
                <path class="cls-1" d="M8 14L4 49h42l-4-35z"></path>
                <path class="cls-2" d="M0 0h50v50H0z"></path>
                <path class="cls-1" d="M34 19v-8a9 9 0 0 0-18 0v8"></path>
                <circle cx="34" cy="19" r="2"></circle>
                <circle cx="16" cy="19" r="2"></circle>
            </g>
        </g>
    </symbol>


</svg>
